…
``` r
# -- define recipe 
xgb_recipe <- recipe(av_total ~ own_occ+land_sf+home_age+   yr_remod+living_area+   num_floors+structure_class+ r_bldg_styl+    r_roof_typ+ r_ext_fin+  r_total_rms+r_bdrms+r_full_bth+r_half_bth+r_bth_style+r_kitch+r_kitch_style+r_heat_typ+r_ac+    r_fplace+   r_ext_cnd+  r_ovrall_cnd+   r_int_cnd   +r_int_fin+ r_view+ population.y+   pop_density.y+median_income.y+city_state.y+remod_yes, data = train) %>%
  step_novel(all_nominal_predictors())%>%
  step_nzv(all_predictors()) %>%
  #step_other(all_nominal_predictors(), threshold = 0.01) %>%
  step_impute_mean(all_numeric_predictors()) %>%
  step_impute_mode(all_nominal_predictors()) %>%
  step_dummy(all_nominal_predictors())

## Check the recipe results m
bake(xgb_recipe %>% prep(),train %>% sample_n(1000))
```

    ## # A tibble: 1,000 × 88
    ##    land_sf home_age living_area num_fl…¹ r_tot…² r_bdrms r_ful…³ r_hal…⁴ r_fpl…⁵
    ##      <dbl>    <dbl>       <dbl>    <dbl>   <dbl>   <dbl>   <dbl>   <dbl>   <dbl>
    ##  1    8000      166        1485      2         7       3       1       0       0
    ##  2    3185      132        1689      2         8       3       1       0       0
    ##  3    6157       18        1620      2         6       3       1       0       1
    ##  4   13532       25        1800      2         8       4       2       1       1
    ##  5    5500       82        1427      1         6       2       1       0       1
    ##  6    4945       10        2302      2         7       3       2       1       0
    ##  7    8318        6        1306      1.5       6       3       2       0       1
    ##  8    5000      117        1288      2         6       3       1       0       0
    ##  9    2016       31        1350      2         5       3       2       0       0
    ## 10    4606       27        1440      2         6       3       2       0       0
    ## # … with 990 more rows, 79 more variables: population.y <dbl>,
    ## #   pop_density.y <dbl>, median_income.y <dbl>, av_total <dbl>,
    ## #   own_occ_Y <int>, own_occ_new <int>, r_bldg_styl_BW <int>,
    ## #   r_bldg_styl_CL <int>, r_bldg_styl_CN <int>, r_bldg_styl_CP <int>,
    ## #   r_bldg_styl_CV <int>, r_bldg_styl_OT <int>, r_bldg_styl_RE <int>,
    ## #   r_bldg_styl_RM <int>, r_bldg_styl_RN <int>, r_bldg_styl_RR <int>,
    ## #   r_bldg_styl_SD <int>, r_bldg_styl_SL <int>, r_bldg_styl_TD <int>, …
…
